{
  "project_info": {
    "project_number": "674260305360",
    "firebase_url": "https://teleark2.firebaseio.com",
    "project_id": "teleark2",
    "storage_bucket": "teleark2.appspot.com"
  },
  "client": [
    {
      "client_info": {
        "mobilesdk_app_id": "1:674260305360:android:ef128bf0595fc2ababe5d5",
        "android_client_info": {
          "package_name": "net.nishidentsu.teleark2"
        }
      },
      "oauth_client": [
        {
          "client_id": "674260305360-lrj871s1n84rs88f5481as8vofr93288.apps.googleusercontent.com",
          "client_type": 3
        }
      ],
      "api_key": [
        {
          "current_key": "AIzaSyDcj-3HXNnJw5VSKv3C1KwtPRiS9XJhLZE"
        }
      ],
      "services": {
        "appinvite_service": {
          "other_platform_oauth_client": [
            {
              "client_id": "674260305360-lrj871s1n84rs88f5481as8vofr93288.apps.googleusercontent.com",
              "client_type": 3
            }
          ]
        }
      }
    }
  ],
  "configuration_version": "1"
}